ip/rx_intf/.Xil/Vivado-14039-leo/hw_ila_data_1/zip_work/waveform.vcd
$date
        2021-Feb-23 17:41:34
$end
$version
        Vivado v2018.3 (64-bit)
$end
$timescale
        1ps
$end
$scope module dut $end
$var reg 5 " i_system_wrapper/system_i/openwifi_ip/tx_intf_0/inst/dac_intf_i/wr_data_count [4:0] $end
$var reg 32 ' i_system_wrapper/system_i/openwifi_ip/tx_intf_0/inst/duc_bank_core_i/bw20_data_tdata [31:0] $end
$var reg 32 G i_system_wrapper/system_i/openwifi_ip/tx_intf_0/inst/duc_bank_core_i/ant_data_wr_data [31:0] $end
$var reg 64 g i_system_wrapper/system_i/openwifi_ip/xpu_0/inst/time_slice_gen_i/tsf_load_val [63:0] $end
$var reg 64 I" i_system_wrapper/system_i/openwifi_ip/xpu_0/inst/time_slice_gen_i/tsf_runtime_val_internal [63:0] $end
$var reg 64 +# i_system_wrapper/system_i/openwifi_ip/xpu_0/inst/tsf_timer_i/read_beacon_val [63:0] $end
$var reg 64 k# i_system_wrapper/system_i/openwifi_ip/xpu_0/inst/tsf_timer_i/read_response_val [63:0] $end
$var reg 64 M$ i_system_wrapper/system_i/openwifi_ip/xpu_0/inst/tsf_timer_i/receive_beacon_val [63:0] $end
$var reg 64 /% i_system_wrapper/system_i/openwifi_ip/xpu_0/inst/tsf_timer_i/receive_response_val [63:0] $end
$var reg 64 o% i_system_wrapper/system_i/openwifi_ip/xpu_0/inst/tsf_timer_i/write_beacon_val [63:0] $end
$var reg 64 Q& i_system_wrapper/system_i/openwifi_ip/xpu_0/inst/tsf_timer_i/tsf_cyctime_val [63:0] $end
$var reg 64 3' i_system_wrapper/system_i/openwifi_ip/xpu_0/inst/tsf_timer_i/write_response_val [63:0] $end
$var reg 64 s' i_system_wrapper/system_i/openwifi_ip/xpu_0/inst/tsf_runtime_val [63:0] $end
$var reg 2 U( i_system_wrapper/system_i/openwifi_ip/xpu_0/inst/tx_queue_idx [1:0] $end
$var reg 1 W( u_ila_0_ant_data_full_n $end
$var reg 1 X( i_system_wrapper/system_i/openwifi_ip/tx_intf_0/inst/duc_bank_core_i/ant_data_wr_en $end
$var reg 1 Y( i_system_wrapper/system_i/openwifi_ip/xpu_0/high_tx_allowed0 $end
$var reg 1 Z( i_system_wrapper/system_i/openwifi_ip/xpu_0/inst/high_tx_allowed0 $end
$var reg 1 [( i_system_wrapper/system_i/openwifi_ip/xpu_0/high_tx_allowed1 $end
$var reg 1 \( i_system_wrapper/system_i/openwifi_ip/xpu_0/high_tx_allowed2 $end
$var reg 1 ]( i_system_wrapper/system_i/openwifi_ip/xpu_0/high_tx_allowed3 $end
$var reg 1 ^( i_system_wrapper/system_i/openwifi_ip/xpu_0/inst/tsf_timer_i/read_beacon $end
$var reg 1 _( i_system_wrapper/system_i/openwifi_ip/xpu_0/inst/tsf_timer_i/read_response $end
$var reg 1 `( i_system_wrapper/system_i/openwifi_ip/xpu_0/inst/tsf_timer_i/receive_beacon $end
$var reg 1 a( i_system_wrapper/system_i/openwifi_ip/xpu_0/inst/tsf_timer_i/receive_response $end
$var reg 1 b( i_system_wrapper/system_i/openwifi_ip/xpu_0/inst/tsf_timer_i/reset_tsf $end
$var reg 1 c( i_system_wrapper/system_i/openwifi_ip/xpu_0/inst/s00_axis_tlast_beacon $end
$var reg 1 d( i_system_wrapper/system_i/openwifi_ip/xpu_0/inst/slice_en0 $end
$var reg 1 e( i_system_wrapper/system_i/openwifi_ip/xpu_0/inst/tx_on_detection_i/tx_bb_is_ongoing_internal0_reg_0 $end
$var reg 1 f( i_system_wrapper/system_i/openwifi_ip/xpu_0/inst/tx_on_detection_i/tx_bb_is_ongoing_internal1 $end
$var reg 1 g( i_system_wrapper/system_i/openwifi_ip/xpu_0/inst/tx_on_detection_i/tx_bb_is_ongoing_internal2 $end
$var reg 1 h( i_system_wrapper/system_i/openwifi_ip/xpu_0/inst/tx_on_detection_i/tx_bb_is_ongoing_internal3 $end
$var reg 1 i( i_system_wrapper/system_i/openwifi_ip/tx_intf_0/inst/tx_iq_intf_i/tx_iq_fifo_rden $end
$var reg 1 j( i_system_wrapper/system_i/openwifi_ip/tx_intf_0/inst/tx_iq_intf_i/tx_iq_fifo_wren $end
$var reg 1 k( i_system_wrapper/system_i/openwifi_ip/xpu_0/inst/tsf_timer_i/write_beacon $end
$var reg 1 l( i_system_wrapper/system_i/openwifi_ip/xpu_0/inst/tsf_timer_i/write_response $end
$var reg 1 m( _TRIGGER $end
$var reg 1 n( _WINDOW $end
$var reg 1 o( _GAP $end
$upscope $end
$enddefinitions $end
#0
$dumpvars
b11110 "
b0 '
b0 G
b0 g
b11110011111110111110111 I"
b1100 +#
b0 k#
b11011101110111000101101001 M$
b0 /%
b11110011111101110001011 o%
b11110100001000101111111 Q&
b0 3'
b11110011111110111110111 s'
b0 U(
0W(
0X(
0Y(
0Z(
0[(
1\(
1](
0^(
0_(
0`(
0a(
0b(
0c(
0d(
0e(
0f(
0g(
0h(
1i(
0j(
0k(
0l(
0m(
1n(
0o(
$end
#1
b11111 "
b11110011111110111111000 I"
b11110011111110111111000 s'
#2
b11110011111110111111001 I"
b11110011111110111111001 s'
0i(
#3
b11110011111110111111010 I"
b11110011111110111111010 s'
#4
b11110 "
b11110011111110111111011 I"
b11110011111110111111011 s'
1W(
1X(
#5
b11110011111110111111100 I"
b11110011111110111111100 s'
0W(
0X(
#6
b11111 "
b11110011111110111111101 I"
b11110011111110111111101 s'
#7
b11110011111110111111110 I"
b11110011111110111111110 s'
#8
b11110011111110111111111 I"
b11110011111110111111111 s'
#9
b11110 "
b11110011111111000000000 I"
b11110011111111000000000 s'
1W(
1X(
#10
b11110011111111000000001 I"
b11110011111111000000001 s'
0W(
0X(
#11
b11111 "
b11110011111111000000010 I"
b11110011111111000000010 s'
#12
b11110011111111000000011 I"
b11110011111111000000011 s'
#13
b11110011111111000000100 I"
b11110011111111000000100 s'
#14
b11110 "
b11110011111111000000101 I"
b11110011111111000000101 s'
1W(
1X(
#15
b11110011111111000000110 I"
b11110011111111000000110 s'
0W(
0X(
#16
b11111 "
b11110011111111000000111 I"
b11110011111111000000111 s'
#17
b11110011111111000001000 I"
b11110011111111000001000 s'
#18
b11110011111111000001001 I"
b11110011111111000001001 s'
#19
b11110 "
b11110011111111000001010 I"
b11110011111111000001010 s'
1W(
1X(
#20
b11110011111111000001011 I"
b11110011111111000001011 s'
0W(
0X(
#21
b11111 "
b11110011111111000001100 I"
b11110011111111000001100 s'
#22
b11110011111111000001101 I"
b11110011111111000001101 s'
#23
b11110011111111000001110 I"
b11110011111111000001110 s'
#24
b11110 "
b11110011111111000001111 I"
b11110011111111000001111 s'
1W(
1X(
#25
b11110011111111000010000 I"
b11110011111111000010000 s'
0W(
0X(
#26
b11111 "
b11110011111111000010001 I"
b11110011111111000010001 s'
#27
b11110011111111000010010 I"
b11110011111111000010010 s'
#28
b11110011111111000010011 I"
b11110011111111000010011 s'
#29
b11110 "
b11110011111111000010100 I"
b11110011111111000010100 s'
1W(
1X(
#30
b11110011111111000010101 I"
b11110011111111000010101 s'
0W(
0X(
#31
b11111 "
b11110011111111000010110 I"
b11110011111111000010110 s'
#32
b11110011111111000010111 I"
b11110011111111000010111 s'
#33
b11110011111111000011000 I"
b11110011111111000011000 s'
#34
b11110 "
b11110011111111000011001 I"
b11110011111111000011001 s'
1W(
1X(
#35
b11110011111111000011010 I"
b11110011111111000011010 s'
0W(
0X(
#36
b11111 "
b11110011111111000011011 I"
b11110011111111000011011 s'
#37
b11110011111111000011100 I"
b11110011111111000011100 s'
#38
b11110011111111000011101 I"
b11110011111111000011101 s'
1i(
#39
b11110 "
b11110011111111000011110 I"
b11110011111111000011110 s'
1W(
1X(
#40
b11110011111111000011111 I"
b11110011111111000011111 s'
0W(
0X(
#41
b11111 "
b11110011111111000100000 I"
b11110011111111000100000 s'
#42
b11110011111111000100001 I"
b11110011111111000100001 s'
0i(
#43
b11110011111111000100010 I"
b11110011111111000100010 s'
#44
b11110 "
b11110011111111000100011 I"
b11110011111111000100011 s'
1W(
1X(
#45
b11110011111111000100100 I"
b11110011111111000100100 s'
0W(
0X(
#46
b11111 "
b11110011111111000100101 I"
b11110011111111000100101 s'
#47
b11110011111111000100110 I"
b11110011111111000100110 s'
#48
b11110011111111000100111 I"
b11110011111111000100111 s'
#49
b11110 "
b11110011111111000101000 I"
b11110011111111000101000 s'
1W(
1X(
#50
b11110011111111000101001 I"
b11110011111111000101001 s'
0W(
0X(
#51
b11111 "
b11110011111111000101010 I"
b11110011111111000101010 s'
#52
b11110011111111000101011 I"
b11110011111111000101011 s'
#53
b11110011111111000101100 I"
b11110011111111000101100 s'
#54
b11110 "
b11110011111111000101101 I"
b11110011111111000101101 s'
1W(
1X(
#55
b11110011111111000101110 I"
b11110011111111000101110 s'
0W(
0X(
#56
b11111 "
b11110011111111000101111 I"
b11110011111111000101111 s'
#57
b11110011111111000110000 I"
b11110011111111000110000 s'
#58
b11110011111111000110001 I"
b11110011111111000110001 s'
#59
b11110 "
b11110011111111000110010 I"
b11110011111111000110010 s'
1W(
1X(
#60
b11110011111111000110011 I"
b11110011111111000110011 s'
0W(
0X(
#61
b11111 "
b11110011111111000110100 I"
b11110011111111000110100 s'
#62
b11110011111111000110101 I"
b11110011111111000110101 s'
#63
b11110011111111000110110 I"
b11110011111111000110110 s'
#64
b11110 "
b11110011111111000110111 I"
b11110011111111000110111 s'
1W(
1X(
#65
b11110011111111000111000 I"
b11110011111111000111000 s'
0W(
0X(
#66
b11111 "
b11110011111111000111001 I"
b11110011111111000111001 s'
#67
b11110011111111000111010 I"
b11110011111111000111010 s'
#68
b11110011111111000111011 I"
b11110011111111000111011 s'
#69
b11110 "
b11110011111111000111100 I"
b11110011111111000111100 s'
1W(
1X(
#70
b11110011111111000111101 I"
b11110011111111000111101 s'
0W(
0X(
#71
b11111 "
b11110011111111000111110 I"
b11110011111111000111110 s'
#72
b11110011111111000111111 I"
b11110011111111000111111 s'
#73
b11110011111111001000000 I"
b11110011111111001000000 s'
#74
b11110 "
b11110011111111001000001 I"
b11110011111111001000001 s'
1W(
1X(
#75
b11110011111111001000010 I"
b11110011111111001000010 s'
0W(
0X(
#76
b11111 "
b11110011111111001000011 I"
b11110011111111001000011 s'
#77
b11110011111111001000100 I"
b11110011111111001000100 s'
#78
b11110011111111001000101 I"
b11110011111111001000101 s'
1i(
#79
b11110 "
b11110011111111001000110 I"
b11110011111111001000110 s'
1W(
1X(
#80
b11110011111111001000111 I"
b11110011111111001000111 s'
0W(
0X(
#81
b11111 "
b11110011111111001001000 I"
b11110011111111001001000 s'
#82
b11110011111111001001001 I"
b11110011111111001001001 s'
0i(
#83
b11110011111111001001010 I"
b11110011111111001001010 s'
#84
b11110 "
b11110011111111001001011 I"
b11110011111111001001011 s'
1W(
1X(
#85
b11110011111111001001100 I"
b11110011111111001001100 s'
0W(
0X(
#86
b11111 "
b11110011111111001001101 I"
b11110011111111001001101 s'
#87
b11110011111111001001110 I"
b11110011111111001001110 s'
#88
b11110011111111001001111 I"
b11110011111111001001111 s'
#89
b11110 "
b11110011111111001010000 I"
b11110011111111001010000 s'
1W(
1X(
#90
b11110011111111001010001 I"
b11110011111111001010001 s'
0W(
0X(
#91
b11111 "
b11110011111111001010010 I"
b11110011111111001010010 s'
#92
b11110011111111001010011 I"
b11110011111111001010011 s'
#93
b11110011111111001010100 I"
b11110011111111001010100 s'
#94
b11110 "
b11110011111111001010101 I"
b11110011111111001010101 s'
1W(
1X(
#95
b11110011111111001010110 I"
b11110011111111001010110 s'
0W(
0X(
#96
b11111 "
b11110011111111001010111 I"
b11110011111111001010111 s'
#97
b11110011111111001011000 I"
b11110011111111001011000 s'
#98
b11110011111111001011001 I"
b11110011111111001011001 s'
#99
b11110 "
b11110011111111001011010 I"
b11110011111111001011010 s'
1W(
1X(
#100
b11110011111111001011011 I"
b11110011111111001011011 s'
0W(
0X(
#101
b11111 "
b11110011111111001011100 I"
b11110011111111001011100 s'
#102
b11110011111111001011101 I"
b11110011111111001011101 s'
#103
b11110011111111001011110 I"
b11110011111111001011110 s'
#104
b11110 "
b11110011111111001011111 I"
b11110011111111001011111 s'
1W(
1X(
#105
b11110011111111001100000 I"
b11110011111111001100000 s'
0W(
0X(
#106
b11111 "
b11110011111111001100001 I"
b11110011111111001100001 s'
#107
b11110011111111001100010 I"
b11110011111111001100010 s'
#108
b11110011111111001100011 I"
b11110011111111001100011 s'
#109
b11110 "
b11110011111111001100100 I"
b11110011111111001100100 s'
1W(
1X(
#110
b11110011111111001100101 I"
b11110011111111001100101 s'
0W(
0X(
#111
b11111 "
b11110011111111001100110 I"
b11110011111111001100110 s'
#112
b11110011111111001100111 I"
b11110011111111001100111 s'
#113
b11110011111111001101000 I"
b11110011111111001101000 s'
#114
b11110 "
b11110011111111001101001 I"
b11110011111111001101001 s'
1W(
1X(
#115
b11110011111111001101010 I"
b11110011111111001101010 s'
0W(
0X(
#116
b11111 "
b11110011111111001101011 I"
b11110011111111001101011 s'
#117
b11110011111111001101100 I"
b11110011111111001101100 s'
#118
b11110011111111001101101 I"
b11110011111111001101101 s'
1i(
#119
b11110 "
b11110011111111001101110 I"
b11110011111111001101110 s'
1W(
1X(
#120
b11110011111111001101111 I"
b11110011111111001101111 s'
0W(
0X(
#121
b11111 "
b11110011111111001110000 I"
b11110011111111001110000 s'
#122
b11110011111111001110001 I"
b11110011111111001110001 s'
0i(
#123
b11110011111111001110010 I"
b11110011111111001110010 s'
#124
b11110 "
b11110011111111001110011 I"
b11110011111111001110011 s'
1W(
1X(
#125
b11110011111111001110100 I"
b11110011111111001110100 s'
0W(
0X(
#126
b11111 "
b11110011111111001110101 I"
b11110011111111001110101 s'
#127
b11110011111111001110110 I"
b11110011111111001110110 s'
#128
b11110011111111001110111 I"
b11110011111111001110111 s'
#129
b11110 "
b11110011111111001111000 I"
b11110011111111001111000 s'
1W(
1X(
#130
b11110011111111001111001 I"
b11110011111111001111001 s'
0W(
0X(
#131
b11111 "
b11110011111111001111010 I"
b11110011111111001111010 s'
#132
b11110011111111001111011 I"
b11110011111111001111011 s'
#133
b11110011111111001111100 I"
b11110011111111001111100 s'
#134
b11110 "
b11110011111111001111101 I"
b11110011111111001111101 s'
1W(
1X(
#135
b11110011111111001111110 I"
b11110011111111001111110 s'
0W(
0X(
#136
b11111 "
b11110011111111001111111 I"
b11110011111111001111111 s'
#137
b11110011111111010000000 I"
b11110011111111010000000 s'
#138
b11110011111111010000001 I"
b11110011111111010000001 s'
#139
b11110 "
b11110011111111010000010 I"
b11110011111111010000010 s'
1W(
1X(
#140
b11110011111111010000011 I"
b11110011111111010000011 s'
0W(
0X(
#141
b11111 "
b11110011111111010000100 I"
b11110011111111010000100 s'
#142
b11110011111111010000101 I"
b11110011111111010000101 s'
#143
b11110011111111010000110 I"
b11110011111111010000110 s'
#144
b11110 "
b11110011111111010000111 I"
b11110011111111010000111 s'
1W(
1X(
#145
b11110011111111010001000 I"
b11110011111111010001000 s'
0W(
0X(
#146
b11111 "
b11110011111111010001001 I"
b11110011111111010001001 s'
#147
b11110011111111010001010 I"
b11110011111111010001010 s'
#148
b11110011111111010001011 I"
b11110011111111010001011 s'
#149
b11110 "
b11110011111111010001100 I"
b11110011111111010001100 s'
1W(
1X(
#150
b11110011111111010001101 I"
b11110011111111010001101 s'
0W(
0X(
#151
b11111 "
b11110011111111010001110 I"
b11110011111111010001110 s'
#152
b11110011111111010001111 I"
b11110011111111010001111 s'
#153
b11110011111111010010000 I"
b11110011111111010010000 s'
#154
b11110 "
b11110011111111010010001 I"
b11110011111111010010001 s'
1W(
1X(
#155
b11110011111111010010010 I"
b11110011111111010010010 s'
0W(
0X(
#156
b11111 "
b11110011111111010010011 I"
b11110011111111010010011 s'
#157
b11110011111111010010100 I"
b11110011111111010010100 s'
#158
b11110011111111010010101 I"
b11110011111111010010101 s'
1i(
#159
b11110 "
b11110011111111010010110 I"
b11110011111111010010110 s'
1W(
1X(
#160
b11110011111111010010111 I"
b11110011111111010010111 s'
0W(
0X(
#161
b11111 "
b11110011111111010011000 I"
b11110011111111010011000 s'
#162
b11110011111111010011001 I"
b11110011111111010011001 s'
0i(
#163
b11110011111111010011010 I"
b11110011111111010011010 s'
#164
b11110 "
b11110011111111010011011 I"
b11110011111111010011011 s'
1W(
1X(
#165
b11110011111111010011100 I"
b11110011111111010011100 s'
0W(
0X(
#166
b11111 "
b11110011111111010011101 I"
b11110011111111010011101 s'
#167
b11110011111111010011110 I"
b11110011111111010011110 s'
#168
b11110011111111010011111 I"
b11110011111111010011111 s'
#169
b11110 "
b11110011111111010100000 I"
b11110011111111010100000 s'
1W(
1X(
#170
b11110011111111010100001 I"
b11110011111111010100001 s'
0W(
0X(
#171
b11111 "
b11110011111111010100010 I"
b11110011111111010100010 s'
#172
b11110011111111010100011 I"
b11110011111111010100011 s'
#173
b11110011111111010100100 I"
b11110011111111010100100 s'
#174
b11110 "
b11110011111111010100101 I"
b11110011111111010100101 s'
1W(
1X(
#175
b11110011111111010100110 I"
b11110011111111010100110 s'
0W(
0X(
#176
b11111 "
b11110011111111010100111 I"
b11110011111111010100111 s'
#177
b11110011111111010101000 I"
b11110011111111010101000 s'
#178
b11110011111111010101001 I"
b11110011111111010101001 s'
#179
b11110 "
b11110011111111010101010 I"
b11110011111111010101010 s'
1W(
1X(
#180
b11110011111111010101011 I"
b11110011111111010101011 s'
0W(
0X(
#181
b11111 "
b11110011111111010101100 I"
b11110011111111010101100 s'
#182
b11110011111111010101101 I"
b11110011111111010101101 s'
#183
b11110011111111010101110 I"
b11110011111111010101110 s'
#184
b11110 "
b11110011111111010101111 I"
b11110011111111010101111 s'
1W(
1X(
#185
b11110011111111010110000 I"
b11110011111111010110000 s'
0W(
0X(
#186
b11111 "
b11110011111111010110001 I"
b11110011111111010110001 s'
#187
b11110011111111010110010 I"
b11110011111111010110010 s'
#188
b11110011111111010110011 I"
b11110011111111010110011 s'
#189
b11110 "
b11110011111111010110100 I"
b11110011111111010110100 s'
1W(
1X(
#190
b11110011111111010110101 I"
b11110011111111010110101 s'
0W(
0X(
#191
b11111 "
b11110011111111010110110 I"
b11110011111111010110110 s'
#192
b11110011111111010110111 I"
b11110011111111010110111 s'
#193
b11110011111111010111000 I"
b11110011111111010111000 s'
#194
b11110 "
b11110011111111010111001 I"
b11110011111111010111001 s'
1W(
1X(
#195
b11110011111111010111010 I"
b11110011111111010111010 s'
0W(
0X(
#196
b11111 "
b11110011111111010111011 I"
b11110011111111010111011 s'
#197
b11110011111111010111100 I"
b11110011111111010111100 s'
#198
b11110011111111010111101 I"
b11110011111111010111101 s'
1i(
#199
b11110 "
b11110011111111010111110 I"
b11110011111111010111110 s'
1W(
1X(
#200
b11110011111111010111111 I"
b11110011111111010111111 s'
0W(
0X(
#201
b11111 "
b11110011111111011000000 I"
b11110011111111011000000 s'
#202
b11110011111111011000001 I"
b11110011111111011000001 s'
0i(
#203
b11110011111111011000010 I"
b11110011111111011000010 s'
#204
b11110 "
b11110011111111011000011 I"
b11110011111111011000011 s'
1W(
1X(
#205
b11110011111111011000100 I"
b11110011111111011000100 s'
0W(
0X(
#206
b11111 "
b11110011111111011000101 I"
b11110011111111011000101 s'
#207
b11110011111111011000110 I"
b11110011111111011000110 s'
#208
b11110011111111011000111 I"
b11110011111111011000111 s'
#209
b11110 "
b11110011111111011001000 I"
b11110011111111011001000 s'
1W(
1X(
#210
b11110011111111011001001 I"
b11110011111111011001001 s'
0W(
0X(
#211
b11111 "
b11110011111111011001010 I"
b11110011111111011001010 s'
#212
b11110011111111011001011 I"
b11110011111111011001011 s'
#213
b11110011111111011001100 I"
b11110011111111011001100 s'
#214
b11110 "
b11110011111111011001101 I"
b11110011111111011001101 s'
1W(
1X(
#215
b11110011111111011001110 I"
b11110011111111011001110 s'
0W(
0X(
#216
b11111 "
b11110011111111011001111 I"
b11110011111111011001111 s'
#217
b11110011111111011010000 I"
b11110011111111011010000 s'
#218
b11110011111111011010001 I"
b11110011111111011010001 s'
#219
b11110 "
b11110011111111011010010 I"
b11110011111111011010010 s'
1W(
1X(
#220
b11110011111111011010011 I"
b11110011111111011010011 s'
0W(
0X(
#221
b11111 "
b11110011111111011010100 I"
b11110011111111011010100 s'
#222
b11110011111111011010101 I"
b11110011111111011010101 s'
#223
b11110011111111011010110 I"
b11110011111111011010110 s'
#224
b11110 "
b11110011111111011010111 I"
b11110011111111011010111 s'
1W(
1X(
#225
b11110011111111011011000 I"
b11110011111111011011000 s'
0W(
0X(
#226
b11111 "
b11110011111111011011001 I"
b11110011111111011011001 s'
#227
b11110011111111011011010 I"
b11110011111111011011010 s'
#228
b11110011111111011011011 I"
b11110011111111011011011 s'
#229
b11110 "
b11110011111111011011100 I"
b11110011111111011011100 s'
1W(
1X(
#230
b11110011111111011011101 I"
b11110011111111011011101 s'
0W(
0X(
#231
b11111 "
b11110011111111011011110 I"
b11110011111111011011110 s'
#232
b11110011111111011011111 I"
b11110011111111011011111 s'
#233
b11110011111111011100000 I"
b11110011111111011100000 s'
#234
b11110 "
b11110011111111011100001 I"
b11110011111111011100001 s'
1W(
1X(
#235
b11110011111111011100010 I"
b11110011111111011100010 s'
0W(
0X(
#236
b11111 "
b11110011111111011100011 I"
b11110011111111011100011 s'
#237
b11110011111111011100100 I"
b11110011111111011100100 s'
#238
b11110011111111011100101 I"
b11110011111111011100101 s'
#239
b11110 "
b11110011111111011100110 I"
b11110011111111011100110 s'
1W(
1X(
#240
b11110011111111011100111 I"
b11110011111111011100111 s'
0W(
0X(
#241
b11111 "
b11110011111111011101000 I"
b11110011111111011101000 s'
#242
b11110011111111011101001 I"
b11110011111111011101001 s'
#243
b11110011111111011101010 I"
b11110011111111011101010 s'
#244
b11110 "
b11110011111111011101011 I"
b11110011111111011101011 s'
1W(
1X(
#245
b11110011111111011101100 I"
b11110011111111011101100 s'
0W(
0X(
#246
b11111 "
b11110011111111011101101 I"
b11110011111111011101101 s'
#247
b11110011111111011101110 I"
b11110011111111011101110 s'
#248
b11110011111111011101111 I"
b11110011111111011101111 s'
#249
b11110 "
b11110011111111011110000 I"
b11110011111111011110000 s'
1W(
#250
b11110011111111011110001 I"
b11110011111111011110001 s'
#251
b11110011111111011110010 I"
b11110011111111011110010 s'
#252
b11110011111111011110011 I"
b11110011111111011110011 s'
#253
b11110011111111011110100 I"
b11110011111111011110100 s'
#254
b11101 "
b11110011111111011110101 I"
b11110011111111011110101 s'
#255
b11110011111111011110110 I"
b11110011111111011110110 s'
1X(
#256
b11110011111111011110111 I"
b11110011111111011110111 s'
#257
b11110 "
b11110011111111011111000 I"
b11110011111111011111000 s'
0W(
0X(
#258
b11111 "
b11110011111111011111001 I"
b11110011111111011111001 s'
#259
b11110 "
b11110011111111011111010 I"
b11110011111111011111010 s'
1W(
1X(
#260
b11110011111111011111011 I"
b11110011111111011111011 s'
0W(
0X(
#261
b11111 "
b11110011111111011111100 I"
b11110011111111011111100 s'
#262
b11110011111111011111101 I"
b11110011111111011111101 s'
#263
b11110011111111011111110 I"
b11110011111111011111110 s'
#264
b11110 "
b11110011111111011111111 I"
b11110011111111011111111 s'
1W(
1X(
#265
b11110011111111100000000 I"
b11110011111111100000000 s'
0W(
0X(
#266
b11111 "
b11110011111111100000001 I"
b11110011111111100000001 s'
#267
b11110011111111100000010 I"
b11110011111111100000010 s'
#268
b11110011111111100000011 I"
b11110011111111100000011 s'
#269
b11110 "
b11110011111111100000100 I"
b11110011111111100000100 s'
1W(
1X(
#270
b11110011111111100000101 I"
b11110011111111100000101 s'
0W(
0X(
#271
b11111 "
b11110011111111100000110 I"
b11110011111111100000110 s'
1i(
#272
b11110011111111100000111 I"
b11110011111111100000111 s'
#273
b11110011111111100001000 I"
b11110011111111100001000 s'
#274
b11110 "
b11110011111111100001001 I"
b11110011111111100001001 s'
1W(
1X(
#275
b11110011111111100001010 I"
b11110011111111100001010 s'
0W(
0X(
0i(
#276
b11111 "
b11110011111111100001011 I"
b11110011111111100001011 s'
#277
b11110011111111100001100 I"
b11110011111111100001100 s'
#278
b11110011111111100001101 I"
b11110011111111100001101 s'
#279
b11110 "
b11110011111111100001110 I"
b11110011111111100001110 s'
1W(
1X(
#280
b11110011111111100001111 I"
b11110011111111100001111 s'
0W(
0X(
#281
b11111 "
b11110011111111100010000 I"
b11110011111111100010000 s'
#282
b11110011111111100010001 I"
b11110011111111100010001 s'
#283
b11110011111111100010010 I"
b11110011111111100010010 s'
#284
b11110 "
b11110011111111100010011 I"
b11110011111111100010011 s'
1W(
1X(
#285
b11110011111111100010100 I"
b11110011111111100010100 s'
0W(
0X(
#286
b11111 "
b11110011111111100010101 I"
b11110011111111100010101 s'
#287
b11110011111111100010110 I"
b11110011111111100010110 s'
#288
b11110011111111100010111 I"
b11110011111111100010111 s'
#289
b11110 "
b11110011111111100011000 I"
b11110011111111100011000 s'
1W(
1X(
#290
b11110011111111100011001 I"
b11110011111111100011001 s'
0W(
0X(
#291
b11111 "
b11110011111111100011010 I"
b11110011111111100011010 s'
#292
b11110011111111100011011 I"
b11110011111111100011011 s'
#293
b11110011111111100011100 I"
b11110011111111100011100 s'
#294
b11110 "
b11110011111111100011101 I"
b11110011111111100011101 s'
1W(
1X(
#295
b11110011111111100011110 I"
b11110011111111100011110 s'
0W(
0X(
#296
b11111 "
b11110011111111100011111 I"
b11110011111111100011111 s'
#297
b11110011111111100100000 I"
b11110011111111100100000 s'
#298
b11110011111111100100001 I"
b11110011111111100100001 s'
#299
b11110 "
b11110011111111100100010 I"
b11110011111111100100010 s'
1W(
1X(
#300
b11110011111111100100011 I"
b11110011111111100100011 s'
0W(
0X(
#301
b11111 "
b11110011111111100100100 I"
b11110011111111100100100 s'
#302
b11110011111111100100101 I"
b11110011111111100100101 s'
#303
b11110011111111100100110 I"
b11110011111111100100110 s'
1i(
#304
b11110 "
b11110011111111100100111 I"
b11110011111111100100111 s'
1W(
1X(
#305
b11110011111111100101000 I"
b11110011111111100101000 s'
0W(
0X(
#306
b11111 "
b11110011111111100101001 I"
b11110011111111100101001 s'
#307
b11110011111111100101010 I"
b11110011111111100101010 s'
0i(
#308
b11110011111111100101011 I"
b11110011111111100101011 s'
#309
b11110 "
b11110011111111100101100 I"
b11110011111111100101100 s'
1W(
1X(
#310
b11110011111111100101101 I"
b11110011111111100101101 s'
0W(
0X(
#311
b11111 "
b11110011111111100101110 I"
b11110011111111100101110 s'
#312
b11110011111111100101111 I"
b11110011111111100101111 s'
#313
b11110011111111100110000 I"
b11110011111111100110000 s'
#314
b11110 "
b11110011111111100110001 I"
b11110011111111100110001 s'
1W(
1X(
#315
b11110011111111100110010 I"
b11110011111111100110010 s'
0W(
0X(
#316
b11111 "
b11110011111111100110011 I"
b11110011111111100110011 s'
#317
b11110011111111100110100 I"
b11110011111111100110100 s'
#318
b11110011111111100110101 I"
b11110011111111100110101 s'
#319
b11110 "
b11110011111111100110110 I"
b11110011111111100110110 s'
1W(
1X(
#320
b11110011111111100110111 I"
b11110011111111100110111 s'
0W(
0X(
#321
b11111 "
b11110011111111100111000 I"
b11110011111111100111000 s'
#322
b11110011111111100111001 I"
b11110011111111100111001 s'
#323
b11110011111111100111010 I"
b11110011111111100111010 s'
#324
b11110 "
b11110011111111100111011 I"
b11110011111111100111011 s'
1W(
1X(
#325
b11110011111111100111100 I"
b11110011111111100111100 s'
0W(
0X(
#326
b11111 "
b11110011111111100111101 I"
b11110011111111100111101 s'
#327
b11110011111111100111110 I"
b11110011111111100111110 s'
#328
b11110011111111100111111 I"
b11110011111111100111111 s'
#329
b11110 "
b11110011111111101000000 I"
b11110011111111101000000 s'
1W(
1X(
#330
b11110011111111101000001 I"
b11110011111111101000001 s'
0W(
0X(
#331
b11111 "
b11110011111111101000010 I"
b11110011111111101000010 s'
#332
b11110011111111101000011 I"
b11110011111111101000011 s'
#333
b11110011111111101000100 I"
b11110011111111101000100 s'
#334
b11110 "
b11110011111111101000101 I"
b11110011111111101000101 s'
1W(
1X(
#335
b11110011111111101000110 I"
b11110011111111101000110 s'
0W(
0X(
1i(
#336
b11111 "
b11110011111111101000111 I"
b11110011111111101000111 s'
#337
b11110011111111101001000 I"
b11110011111111101001000 s'
#338
b11110011111111101001001 I"
b11110011111111101001001 s'
#339
b11110 "
b11110011111111101001010 I"
b11110011111111101001010 s'
1W(
1X(
0i(
#340
b11110011111111101001011 I"
b11110011111111101001011 s'
0W(
0X(
#341
b11111 "
b11110011111111101001100 I"
b11110011111111101001100 s'
#342
b11110011111111101001101 I"
b11110011111111101001101 s'
#343
b11110011111111101001110 I"
b11110011111111101001110 s'
#344
b11110 "
b11110011111111101001111 I"
b11110011111111101001111 s'
1W(
1X(
#345
b11110011111111101010000 I"
b11110011111111101010000 s'
0W(
0X(
#346
b11111 "
b11110011111111101010001 I"
b11110011111111101010001 s'
#347
b11110011111111101010010 I"
b11110011111111101010010 s'
#348
b11110011111111101010011 I"
b11110011111111101010011 s'
#349
b11110 "
b11110011111111101010100 I"
b11110011111111101010100 s'
1W(
1X(
#350
b11110011111111101010101 I"
b11110011111111101010101 s'
0W(
0X(
#351
b11111 "
b11110011111111101010110 I"
b11110011111111101010110 s'
#352
b11110011111111101010111 I"
b11110011111111101010111 s'
#353
b11110011111111101011000 I"
b11110011111111101011000 s'
#354
b11110 "
b11110011111111101011001 I"
b11110011111111101011001 s'
1W(
1X(
#355
b11110011111111101011010 I"
b11110011111111101011010 s'
0W(
0X(
#356
b11111 "
b11110011111111101011011 I"
b11110011111111101011011 s'
#357
b11110011111111101011100 I"
b11110011111111101011100 s'
#358
b11110011111111101011101 I"
b11110011111111101011101 s'
