boards/zc706_fmcs2/.Xil/Vivado-8772-leo/hw_ila_data_1/zip_work/waveform.vcd
$date
        2021-Feb-24 15:39:48
$end
$version
        Vivado v2018.3 (64-bit)
$end
$timescale
        1ps
$end
$scope module dut $end
$var reg 5 " i_system_wrapper/system_i/openwifi_ip/tx_intf_0/inst/dac_intf_i/wr_data_count [4:0] $end
$var reg 32 ' i_system_wrapper/system_i/openwifi_ip/tx_intf_0/inst/duc_bank_core_i/bw20_data_tdata [31:0] $end
$var reg 32 G i_system_wrapper/system_i/openwifi_ip/tx_intf_0/inst/duc_bank_core_i/ant_data_wr_data [31:0] $end
$var reg 64 g i_system_wrapper/system_i/openwifi_ip/xpu_0/inst/time_slice_gen_i/tsf_load_val [63:0] $end
$var reg 64 I" i_system_wrapper/system_i/openwifi_ip/xpu_0/inst/time_slice_gen_i/tsf_runtime_val_internal [63:0] $end
$var reg 64 +# i_system_wrapper/system_i/openwifi_ip/xpu_0/inst/tsf_timer_i/read_beacon_val [63:0] $end
$var reg 64 k# i_system_wrapper/system_i/openwifi_ip/xpu_0/inst/tsf_timer_i/read_response_val [63:0] $end
$var reg 64 M$ i_system_wrapper/system_i/openwifi_ip/xpu_0/inst/tsf_timer_i/receive_beacon_val [63:0] $end
$var reg 64 /% i_system_wrapper/system_i/openwifi_ip/xpu_0/inst/tsf_timer_i/receive_response_val [63:0] $end
$var reg 64 o% i_system_wrapper/system_i/openwifi_ip/xpu_0/inst/tsf_timer_i/write_beacon_val [63:0] $end
$var reg 64 Q& i_system_wrapper/system_i/openwifi_ip/xpu_0/inst/tsf_timer_i/tsf_cyctime_val [63:0] $end
$var reg 64 3' i_system_wrapper/system_i/openwifi_ip/xpu_0/inst/tsf_timer_i/write_response_val [63:0] $end
$var reg 64 s' i_system_wrapper/system_i/openwifi_ip/xpu_0/inst/tsf_runtime_val [63:0] $end
$var reg 2 U( i_system_wrapper/system_i/openwifi_ip/xpu_0/inst/tx_queue_idx [1:0] $end
$var reg 1 W( i_system_wrapper/system_i/openwifi_ip/tx_intf_0/inst/duc_bank_core_i/ant_data_full_n $end
$var reg 1 X( i_system_wrapper/system_i/openwifi_ip/tx_intf_0/inst/duc_bank_core_i/ant_data_wr_en $end
$var reg 1 Y( i_system_wrapper/system_i/openwifi_ip/xpu_0/high_tx_allowed0 $end
$var reg 1 Z( i_system_wrapper/system_i/openwifi_ip/xpu_0/inst/high_tx_allowed0 $end
$var reg 1 [( i_system_wrapper/system_i/openwifi_ip/xpu_0/high_tx_allowed1 $end
$var reg 1 \( i_system_wrapper/system_i/openwifi_ip/xpu_0/high_tx_allowed2 $end
$var reg 1 ]( i_system_wrapper/system_i/openwifi_ip/xpu_0/high_tx_allowed3 $end
$var reg 1 ^( i_system_wrapper/system_i/openwifi_ip/xpu_0/inst/tsf_timer_i/read_beacon $end
$var reg 1 _( i_system_wrapper/system_i/openwifi_ip/xpu_0/inst/tsf_timer_i/read_response $end
$var reg 1 `( i_system_wrapper/system_i/openwifi_ip/xpu_0/inst/tsf_timer_i/receive_beacon $end
$var reg 1 a( i_system_wrapper/system_i/openwifi_ip/xpu_0/inst/tsf_timer_i/receive_response $end
$var reg 1 b( i_system_wrapper/system_i/openwifi_ip/xpu_0/inst/tsf_timer_i/reset_tsf $end
$var reg 1 c( i_system_wrapper/system_i/openwifi_ip/xpu_0/inst/s00_axis_tlast_beacon $end
$var reg 1 d( i_system_wrapper/system_i/openwifi_ip/xpu_0/inst/slice_en0 $end
$var reg 1 e( i_system_wrapper/system_i/openwifi_ip/xpu_0/inst/tx_on_detection_i/tx_bb_is_ongoing_internal0_reg_0 $end
$var reg 1 f( i_system_wrapper/system_i/openwifi_ip/xpu_0/inst/tx_on_detection_i/tx_bb_is_ongoing_internal1 $end
$var reg 1 g( i_system_wrapper/system_i/openwifi_ip/xpu_0/inst/tx_on_detection_i/tx_bb_is_ongoing_internal2 $end
$var reg 1 h( i_system_wrapper/system_i/openwifi_ip/xpu_0/inst/tx_on_detection_i/tx_bb_is_ongoing_internal3 $end
$var reg 1 i( i_system_wrapper/system_i/openwifi_ip/tx_intf_0/inst/tx_iq_intf_i/tx_iq_fifo_rden $end
$var reg 1 j( i_system_wrapper/system_i/openwifi_ip/tx_intf_0/inst/tx_iq_intf_i/tx_iq_fifo_wren $end
$var reg 1 k( i_system_wrapper/system_i/openwifi_ip/xpu_0/inst/tsf_timer_i/write_beacon $end
$var reg 1 l( i_system_wrapper/system_i/openwifi_ip/xpu_0/inst/tsf_timer_i/write_response $end
$var reg 1 m( _TRIGGER $end
$var reg 1 n( _WINDOW $end
$var reg 1 o( _GAP $end
$upscope $end
$enddefinitions $end
#0
$dumpvars
b11110 "
b0 '
b0 G
b0 g
b11110100000100110000011 I"
b1100 +#
b0 k#
b1001000001110011100011000 M$
b0 /%
b11000011010011010000001 o%
b11110100001000110000101 Q&
b0 3'
b11110100000100110000011 s'
b0 U(
0W(
0X(
0Y(
0Z(
0[(
1\(
1](
0^(
0_(
0`(
0a(
0b(
0c(
0d(
0e(
0f(
0g(
0h(
0i(
0j(
0k(
0l(
0m(
1n(
0o(
$end
#1
b11110100000100110000100 I"
b11110100000100110000100 s'
#2
b11101 "
b11110100000100110000101 I"
b11110100000100110000101 s'
1W(
1X(
#3
b11110100000100110000110 I"
b11110100000100110000110 s'
#4
b11110 "
b11110100000100110000111 I"
b11110100000100110000111 s'
0W(
0X(
#5
b11111 "
b11110100000100110001000 I"
b11110100000100110001000 s'
#6
b11110100000100110001001 I"
b11110100000100110001001 s'
1i(
#7
b11110 "
b11110100000100110001010 I"
b11110100000100110001010 s'
#8
b11110100000100110001011 I"
b11110100000100110001011 s'
#9
b11110100000100110001100 I"
b11110100000100110001100 s'
#10
b11110100000100110001101 I"
b11110100000100110001101 s'
0i(
#11
b11110100000100110001110 I"
b11110100000100110001110 s'
#12
b11101 "
b11110100000100110001111 I"
b11110100000100110001111 s'
1W(
1X(
#13
b11110100000100110010000 I"
b11110100000100110010000 s'
#14
b11110 "
b11110100000100110010001 I"
b11110100000100110010001 s'
0W(
0X(
#15
b11111 "
b11110100000100110010010 I"
b11110100000100110010010 s'
#16
b11110100000100110010011 I"
b11110100000100110010011 s'
#17
b11110 "
b11110100000100110010100 I"
b11110100000100110010100 s'
#18
b11110100000100110010101 I"
b11110100000100110010101 s'
#19
b11110100000100110010110 I"
b11110100000100110010110 s'
#20
b11110100000100110010111 I"
b11110100000100110010111 s'
#21
b11110100000100110011000 I"
b11110100000100110011000 s'
#22
b11101 "
b11110100000100110011001 I"
b11110100000100110011001 s'
1W(
1X(
#23
b11110100000100110011010 I"
b11110100000100110011010 s'
#24
b11110 "
b11110100000100110011011 I"
b11110100000100110011011 s'
0W(
0X(
#25
b11111 "
b11110100000100110011100 I"
b11110100000100110011100 s'
#26
b11110100000100110011101 I"
b11110100000100110011101 s'
#27
b11110 "
b11110100000100110011110 I"
b11110100000100110011110 s'
#28
b11110100000100110011111 I"
b11110100000100110011111 s'
#29
b11110100000100110100000 I"
b11110100000100110100000 s'
#30
b11110100000100110100001 I"
b11110100000100110100001 s'
#31
b11110100000100110100010 I"
b11110100000100110100010 s'
#32
b11101 "
b11110100000100110100011 I"
b11110100000100110100011 s'
1W(
1X(
#33
b11110100000100110100100 I"
b11110100000100110100100 s'
#34
b11110 "
b11110100000100110100101 I"
b11110100000100110100101 s'
0W(
0X(
#35
b11111 "
b11110100000100110100110 I"
b11110100000100110100110 s'
#36
b11110100000100110100111 I"
b11110100000100110100111 s'
#37
b11110 "
b11110100000100110101000 I"
b11110100000100110101000 s'
#38
b11110100000100110101001 I"
b11110100000100110101001 s'
#39
b11110100000100110101010 I"
b11110100000100110101010 s'
#40
b11110100000100110101011 I"
b11110100000100110101011 s'
#41
b11110100000100110101100 I"
b11110100000100110101100 s'
#42
b11101 "
b11110100000100110101101 I"
b11110100000100110101101 s'
1W(
1X(
#43
b11110100000100110101110 I"
b11110100000100110101110 s'
#44
b11110 "
b11110100000100110101111 I"
b11110100000100110101111 s'
0W(
0X(
#45
b11111 "
b11110100000100110110000 I"
b11110100000100110110000 s'
#46
b11110100000100110110001 I"
b11110100000100110110001 s'
1i(
#47
b11110 "
b11110100000100110110010 I"
b11110100000100110110010 s'
#48
b11110100000100110110011 I"
b11110100000100110110011 s'
#49
b11110100000100110110100 I"
b11110100000100110110100 s'
#50
b11110100000100110110101 I"
b11110100000100110110101 s'
0i(
#51
b11110100000100110110110 I"
b11110100000100110110110 s'
#52
b11101 "
b11110100000100110110111 I"
b11110100000100110110111 s'
1W(
1X(
#53
b11110100000100110111000 I"
b11110100000100110111000 s'
#54
b11110 "
b11110100000100110111001 I"
b11110100000100110111001 s'
0W(
0X(
#55
b11111 "
b11110100000100110111010 I"
b11110100000100110111010 s'
#56
b11110100000100110111011 I"
b11110100000100110111011 s'
#57
b11110 "
b11110100000100110111100 I"
b11110100000100110111100 s'
#58
b11110100000100110111101 I"
b11110100000100110111101 s'
#59
b11110100000100110111110 I"
b11110100000100110111110 s'
#60
b11110100000100110111111 I"
b11110100000100110111111 s'
#61
b11110100000100111000000 I"
b11110100000100111000000 s'
#62
b11101 "
b11110100000100111000001 I"
b11110100000100111000001 s'
1W(
1X(
#63
b11110100000100111000010 I"
b11110100000100111000010 s'
#64
b11110 "
b11110100000100111000011 I"
b11110100000100111000011 s'
0W(
0X(
#65
b11111 "
b11110100000100111000100 I"
b11110100000100111000100 s'
#66
b11110100000100111000101 I"
b11110100000100111000101 s'
#67
b11110 "
b11110100000100111000110 I"
b11110100000100111000110 s'
#68
b11110100000100111000111 I"
b11110100000100111000111 s'
#69
b11110100000100111001000 I"
b11110100000100111001000 s'
#70
b11110100000100111001001 I"
b11110100000100111001001 s'
#71
b11110100000100111001010 I"
b11110100000100111001010 s'
#72
b11101 "
b11110100000100111001011 I"
b11110100000100111001011 s'
1W(
1X(
#73
b11110100000100111001100 I"
b11110100000100111001100 s'
#74
b11110 "
b11110100000100111001101 I"
b11110100000100111001101 s'
0W(
0X(
#75
b11111 "
b11110100000100111001110 I"
b11110100000100111001110 s'
#76
b11110100000100111001111 I"
b11110100000100111001111 s'
#77
b11110 "
b11110100000100111010000 I"
b11110100000100111010000 s'
#78
b11110100000100111010001 I"
b11110100000100111010001 s'
#79
b11110100000100111010010 I"
b11110100000100111010010 s'
#80
b11110100000100111010011 I"
b11110100000100111010011 s'
#81
b11110100000100111010100 I"
b11110100000100111010100 s'
#82
b11101 "
b11110100000100111010101 I"
b11110100000100111010101 s'
1W(
1X(
#83
b11110100000100111010110 I"
b11110100000100111010110 s'
#84
b11110 "
b11110100000100111010111 I"
b11110100000100111010111 s'
0W(
0X(
#85
b11111 "
b11110100000100111011000 I"
b11110100000100111011000 s'
#86
b11110100000100111011001 I"
b11110100000100111011001 s'
1i(
#87
b11110 "
b11110100000100111011010 I"
b11110100000100111011010 s'
#88
b11110100000100111011011 I"
b11110100000100111011011 s'
#89
b11110100000100111011100 I"
b11110100000100111011100 s'
#90
b11110100000100111011101 I"
b11110100000100111011101 s'
0i(
#91
b11110100000100111011110 I"
b11110100000100111011110 s'
#92
b11101 "
b11110100000100111011111 I"
b11110100000100111011111 s'
1W(
1X(
#93
b11110100000100111100000 I"
b11110100000100111100000 s'
#94
b11110 "
b11110100000100111100001 I"
b11110100000100111100001 s'
0W(
0X(
#95
b11111 "
b11110100000100111100010 I"
b11110100000100111100010 s'
#96
b11110100000100111100011 I"
b11110100000100111100011 s'
#97
b11110 "
b11110100000100111100100 I"
b11110100000100111100100 s'
#98
b11110100000100111100101 I"
b11110100000100111100101 s'
#99
b11110100000100111100110 I"
b11110100000100111100110 s'
#100
b11110100000100111100111 I"
b11110100000100111100111 s'
#101
b11110100000100111101000 I"
b11110100000100111101000 s'
#102
b11101 "
b11110100000100111101001 I"
b11110100000100111101001 s'
1W(
1X(
#103
b11110100000100111101010 I"
b11110100000100111101010 s'
#104
b11110 "
b11110100000100111101011 I"
b11110100000100111101011 s'
0W(
0X(
#105
b11111 "
b11110100000100111101100 I"
b11110100000100111101100 s'
#106
b11110100000100111101101 I"
b11110100000100111101101 s'
#107
b11110 "
b11110100000100111101110 I"
b11110100000100111101110 s'
#108
b11110100000100111101111 I"
b11110100000100111101111 s'
#109
b11110100000100111110000 I"
b11110100000100111110000 s'
#110
b11110100000100111110001 I"
b11110100000100111110001 s'
#111
b11110100000100111110010 I"
b11110100000100111110010 s'
#112
b11101 "
b11110100000100111110011 I"
b11110100000100111110011 s'
1W(
1X(
#113
b11110100000100111110100 I"
b11110100000100111110100 s'
#114
b11110 "
b11110100000100111110101 I"
b11110100000100111110101 s'
0W(
0X(
#115
b11111 "
b11110100000100111110110 I"
b11110100000100111110110 s'
#116
b11110100000100111110111 I"
b11110100000100111110111 s'
#117
b11110 "
b11110100000100111111000 I"
b11110100000100111111000 s'
#118
b11110100000100111111001 I"
b11110100000100111111001 s'
#119
b11110100000100111111010 I"
b11110100000100111111010 s'
#120
b11110100000100111111011 I"
b11110100000100111111011 s'
#121
b11110100000100111111100 I"
b11110100000100111111100 s'
#122
b11101 "
b11110100000100111111101 I"
b11110100000100111111101 s'
1W(
1X(
#123
b11110100000100111111110 I"
b11110100000100111111110 s'
#124
b11110 "
b11110100000100111111111 I"
b11110100000100111111111 s'
0W(
0X(
#125
b11111 "
b11110100000101000000000 I"
b11110100000101000000000 s'
#126
b11110100000101000000001 I"
b11110100000101000000001 s'
1i(
#127
b11110 "
b11110100000101000000010 I"
b11110100000101000000010 s'
#128
b11110100000101000000011 I"
b11110100000101000000011 s'
#129
b11110100000101000000100 I"
b11110100000101000000100 s'
#130
b11110100000101000000101 I"
b11110100000101000000101 s'
0i(
#131
b11110100000101000000110 I"
b11110100000101000000110 s'
#132
b11101 "
b11110100000101000000111 I"
b11110100000101000000111 s'
1W(
1X(
#133
b11110100000101000001000 I"
b11110100000101000001000 s'
#134
b11110 "
b11110100000101000001001 I"
b11110100000101000001001 s'
0W(
0X(
#135
b11111 "
b11110100000101000001010 I"
b11110100000101000001010 s'
#136
b11110100000101000001011 I"
b11110100000101000001011 s'
#137
b11110 "
b11110100000101000001100 I"
b11110100000101000001100 s'
#138
b11110100000101000001101 I"
b11110100000101000001101 s'
#139
b11110100000101000001110 I"
b11110100000101000001110 s'
#140
b11110100000101000001111 I"
b11110100000101000001111 s'
#141
b11110100000101000010000 I"
b11110100000101000010000 s'
#142
b11101 "
b11110100000101000010001 I"
b11110100000101000010001 s'
1W(
1X(
#143
b11110100000101000010010 I"
b11110100000101000010010 s'
#144
b11110 "
b11110100000101000010011 I"
b11110100000101000010011 s'
0W(
0X(
#145
b11111 "
b11110100000101000010100 I"
b11110100000101000010100 s'
#146
b11110100000101000010101 I"
b11110100000101000010101 s'
#147
b11110 "
b11110100000101000010110 I"
b11110100000101000010110 s'
#148
b11110100000101000010111 I"
b11110100000101000010111 s'
#149
b11110100000101000011000 I"
b11110100000101000011000 s'
#150
b11110100000101000011001 I"
b11110100000101000011001 s'
#151
b11110100000101000011010 I"
b11110100000101000011010 s'
#152
b11101 "
b11110100000101000011011 I"
b11110100000101000011011 s'
1W(
1X(
#153
b11110100000101000011100 I"
b11110100000101000011100 s'
#154
b11110 "
b11110100000101000011101 I"
b11110100000101000011101 s'
0W(
0X(
#155
b11111 "
b11110100000101000011110 I"
b11110100000101000011110 s'
#156
b11110100000101000011111 I"
b11110100000101000011111 s'
#157
b11110 "
b11110100000101000100000 I"
b11110100000101000100000 s'
#158
b11110100000101000100001 I"
b11110100000101000100001 s'
#159
b11110100000101000100010 I"
b11110100000101000100010 s'
#160
b11110100000101000100011 I"
b11110100000101000100011 s'
#161
b11110100000101000100100 I"
b11110100000101000100100 s'
#162
b11101 "
b11110100000101000100101 I"
b11110100000101000100101 s'
1W(
1X(
#163
b11110100000101000100110 I"
b11110100000101000100110 s'
#164
b11110 "
b11110100000101000100111 I"
b11110100000101000100111 s'
0W(
0X(
#165
b11111 "
b11110100000101000101000 I"
b11110100000101000101000 s'
#166
b11110100000101000101001 I"
b11110100000101000101001 s'
1i(
#167
b11110 "
b11110100000101000101010 I"
b11110100000101000101010 s'
#168
b11110100000101000101011 I"
b11110100000101000101011 s'
#169
b11110100000101000101100 I"
b11110100000101000101100 s'
#170
b11110100000101000101101 I"
b11110100000101000101101 s'
0i(
#171
b11110100000101000101110 I"
b11110100000101000101110 s'
#172
b11101 "
b11110100000101000101111 I"
b11110100000101000101111 s'
1W(
1X(
#173
b11110100000101000110000 I"
b11110100000101000110000 s'
#174
b11110 "
b11110100000101000110001 I"
b11110100000101000110001 s'
0W(
0X(
#175
b11111 "
b11110100000101000110010 I"
b11110100000101000110010 s'
#176
b11110100000101000110011 I"
b11110100000101000110011 s'
#177
b11110 "
b11110100000101000110100 I"
b11110100000101000110100 s'
#178
b11110100000101000110101 I"
b11110100000101000110101 s'
#179
b11110100000101000110110 I"
b11110100000101000110110 s'
#180
b11110100000101000110111 I"
b11110100000101000110111 s'
#181
b11110100000101000111000 I"
b11110100000101000111000 s'
#182
b11101 "
b11110100000101000111001 I"
b11110100000101000111001 s'
1W(
1X(
#183
b11110100000101000111010 I"
b11110100000101000111010 s'
#184
b11110 "
b11110100000101000111011 I"
b11110100000101000111011 s'
0W(
0X(
#185
b11111 "
b11110100000101000111100 I"
b11110100000101000111100 s'
#186
b11110100000101000111101 I"
b11110100000101000111101 s'
#187
b11110 "
b11110100000101000111110 I"
b11110100000101000111110 s'
#188
b11110100000101000111111 I"
b11110100000101000111111 s'
#189
b11110100000101001000000 I"
b11110100000101001000000 s'
#190
b11110100000101001000001 I"
b11110100000101001000001 s'
#191
b11110100000101001000010 I"
b11110100000101001000010 s'
#192
b11101 "
b11110100000101001000011 I"
b11110100000101001000011 s'
1W(
1X(
#193
b11110100000101001000100 I"
b11110100000101001000100 s'
#194
b11110 "
b11110100000101001000101 I"
b11110100000101001000101 s'
0W(
0X(
#195
b11111 "
b11110100000101001000110 I"
b11110100000101001000110 s'
#196
b11110100000101001000111 I"
b11110100000101001000111 s'
#197
b11110 "
b11110100000101001001000 I"
b11110100000101001001000 s'
#198
b11110100000101001001001 I"
b11110100000101001001001 s'
#199
b11110100000101001001010 I"
b11110100000101001001010 s'
#200
b11110100000101001001011 I"
b11110100000101001001011 s'
#201
b11110100000101001001100 I"
b11110100000101001001100 s'
#202
b11101 "
b11110100000101001001101 I"
b11110100000101001001101 s'
1W(
1X(
#203
b11110100000101001001110 I"
b11110100000101001001110 s'
#204
b11110 "
b11110100000101001001111 I"
b11110100000101001001111 s'
0W(
0X(
#205
b11111 "
b11110100000101001010000 I"
b11110100000101001010000 s'
#206
b11110100000101001010001 I"
b11110100000101001010001 s'
#207
b11110 "
b11110100000101001010010 I"
b11110100000101001010010 s'
#208
b11110100000101001010011 I"
b11110100000101001010011 s'
#209
b11110100000101001010100 I"
b11110100000101001010100 s'
#210
b11110100000101001010101 I"
b11110100000101001010101 s'
#211
b11110100000101001010110 I"
b11110100000101001010110 s'
#212
b11101 "
b11110100000101001010111 I"
b11110100000101001010111 s'
1W(
1X(
#213
b11110100000101001011000 I"
b11110100000101001011000 s'
0X(
#214
b11110 "
b11110100000101001011001 I"
b11110100000101001011001 s'
0W(
#215
b11110100000101001011010 I"
b11110100000101001011010 s'
#216
b11110100000101001011011 I"
b11110100000101001011011 s'
#217
b11101 "
b11110100000101001011100 I"
b11110100000101001011100 s'
1W(
#218
b11110100000101001011101 I"
b11110100000101001011101 s'
#219
b11110100000101001011110 I"
b11110100000101001011110 s'
#220
b11110100000101001011111 I"
b11110100000101001011111 s'
#221
b11110100000101001100000 I"
b11110100000101001100000 s'
#222
b11100 "
b11110100000101001100001 I"
b11110100000101001100001 s'
#223
b11110100000101001100010 I"
b11110100000101001100010 s'
1X(
#224
b11110100000101001100011 I"
b11110100000101001100011 s'
#225
b11101 "
b11110100000101001100100 I"
b11110100000101001100100 s'
#226
b11110 "
b11110100000101001100101 I"
b11110100000101001100101 s'
0W(
0X(
#227
b11110100000101001100110 I"
b11110100000101001100110 s'
#228
b11110100000101001100111 I"
b11110100000101001100111 s'
#229
b11110100000101001101000 I"
b11110100000101001101000 s'
#230
b11110100000101001101001 I"
b11110100000101001101001 s'
#231
b11110100000101001101010 I"
b11110100000101001101010 s'
#232
b11101 "
b11110100000101001101011 I"
b11110100000101001101011 s'
1W(
1X(
#233
b11110100000101001101100 I"
b11110100000101001101100 s'
#234
b11110 "
b11110100000101001101101 I"
b11110100000101001101101 s'
0W(
0X(
#235
b11111 "
b11110100000101001101110 I"
b11110100000101001101110 s'
#236
b11110100000101001101111 I"
b11110100000101001101111 s'
#237
b11110 "
b11110100000101001110000 I"
b11110100000101001110000 s'
#238
b11110100000101001110001 I"
b11110100000101001110001 s'
#239
b11110100000101001110010 I"
b11110100000101001110010 s'
1i(
#240
b11110100000101001110011 I"
b11110100000101001110011 s'
#241
b11110100000101001110100 I"
b11110100000101001110100 s'
#242
b11101 "
b11110100000101001110101 I"
b11110100000101001110101 s'
1W(
1X(
#243
b11110100000101001110110 I"
b11110100000101001110110 s'
0i(
#244
b11110 "
b11110100000101001110111 I"
b11110100000101001110111 s'
0W(
0X(
#245
b11111 "
b11110100000101001111000 I"
b11110100000101001111000 s'
#246
b11110100000101001111001 I"
b11110100000101001111001 s'
#247
b11110 "
b11110100000101001111010 I"
b11110100000101001111010 s'
#248
b11110100000101001111011 I"
b11110100000101001111011 s'
#249
b11110100000101001111100 I"
b11110100000101001111100 s'
#250
b11110100000101001111101 I"
b11110100000101001111101 s'
#251
b11110100000101001111110 I"
b11110100000101001111110 s'
#252
b11101 "
b11110100000101001111111 I"
b11110100000101001111111 s'
1W(
1X(
#253
b11110100000101010000000 I"
b11110100000101010000000 s'
#254
b11110 "
b11110100000101010000001 I"
b11110100000101010000001 s'
0W(
0X(
#255
b11111 "
b11110100000101010000010 I"
b11110100000101010000010 s'
#256
b11110100000101010000011 I"
b11110100000101010000011 s'
#257
b11110 "
b11110100000101010000100 I"
b11110100000101010000100 s'
#258
b11110100000101010000101 I"
b11110100000101010000101 s'
#259
b11110100000101010000110 I"
b11110100000101010000110 s'
#260
b11110100000101010000111 I"
b11110100000101010000111 s'
#261
b11110100000101010001000 I"
b11110100000101010001000 s'
#262
b11101 "
b11110100000101010001001 I"
b11110100000101010001001 s'
1W(
1X(
#263
b11110100000101010001010 I"
b11110100000101010001010 s'
#264
b11110 "
b11110100000101010001011 I"
b11110100000101010001011 s'
0W(
0X(
#265
b11111 "
b11110100000101010001100 I"
b11110100000101010001100 s'
#266
b11110100000101010001101 I"
b11110100000101010001101 s'
#267
b11110 "
b11110100000101010001110 I"
b11110100000101010001110 s'
#268
b11110100000101010001111 I"
b11110100000101010001111 s'
#269
b11110100000101010010000 I"
b11110100000101010010000 s'
#270
b11110100000101010010001 I"
b11110100000101010010001 s'
#271
b11110100000101010010010 I"
b11110100000101010010010 s'
1i(
#272
b11101 "
b11110100000101010010011 I"
b11110100000101010010011 s'
1W(
1X(
#273
b11110100000101010010100 I"
b11110100000101010010100 s'
#274
b11110 "
b11110100000101010010101 I"
b11110100000101010010101 s'
0W(
0X(
#275
b11111 "
b11110100000101010010110 I"
b11110100000101010010110 s'
0i(
#276
b11110100000101010010111 I"
b11110100000101010010111 s'
#277
b11110 "
b11110100000101010011000 I"
b11110100000101010011000 s'
#278
b11110100000101010011001 I"
b11110100000101010011001 s'
#279
b11110100000101010011010 I"
b11110100000101010011010 s'
#280
b11110100000101010011011 I"
b11110100000101010011011 s'
#281
b11110100000101010011100 I"
b11110100000101010011100 s'
#282
b11101 "
b11110100000101010011101 I"
b11110100000101010011101 s'
1W(
1X(
#283
b11110100000101010011110 I"
b11110100000101010011110 s'
#284
b11110 "
b11110100000101010011111 I"
b11110100000101010011111 s'
0W(
0X(
#285
b11111 "
b11110100000101010100000 I"
b11110100000101010100000 s'
#286
b11110100000101010100001 I"
b11110100000101010100001 s'
#287
b11110 "
b11110100000101010100010 I"
b11110100000101010100010 s'
#288
b11110100000101010100011 I"
b11110100000101010100011 s'
#289
b11110100000101010100100 I"
b11110100000101010100100 s'
#290
b11110100000101010100101 I"
b11110100000101010100101 s'
#291
b11110100000101010100110 I"
b11110100000101010100110 s'
#292
b11101 "
b11110100000101010100111 I"
b11110100000101010100111 s'
1W(
1X(
#293
b11110100000101010101000 I"
b11110100000101010101000 s'
#294
b11110 "
b11110100000101010101001 I"
b11110100000101010101001 s'
0W(
0X(
#295
b11111 "
b11110100000101010101010 I"
b11110100000101010101010 s'
#296
b11110100000101010101011 I"
b11110100000101010101011 s'
#297
b11110 "
b11110100000101010101100 I"
b11110100000101010101100 s'
#298
b11110100000101010101101 I"
b11110100000101010101101 s'
#299
b11110100000101010101110 I"
b11110100000101010101110 s'
#300
b11110100000101010101111 I"
b11110100000101010101111 s'
#301
b11110100000101010110000 I"
b11110100000101010110000 s'
#302
b11101 "
b11110100000101010110001 I"
b11110100000101010110001 s'
1W(
1X(
#303
b11110100000101010110010 I"
b11110100000101010110010 s'
1i(
#304
b11110 "
b11110100000101010110011 I"
b11110100000101010110011 s'
0W(
0X(
#305
b11111 "
b11110100000101010110100 I"
b11110100000101010110100 s'
#306
b11110100000101010110101 I"
b11110100000101010110101 s'
#307
b11110 "
b11110100000101010110110 I"
b11110100000101010110110 s'
0i(
#308
b11110100000101010110111 I"
b11110100000101010110111 s'
#309
b11110100000101010111000 I"
b11110100000101010111000 s'
#310
b11110100000101010111001 I"
b11110100000101010111001 s'
#311
b11110100000101010111010 I"
b11110100000101010111010 s'
#312
b11101 "
b11110100000101010111011 I"
b11110100000101010111011 s'
1W(
1X(
#313
b11110100000101010111100 I"
b11110100000101010111100 s'
#314
b11110 "
b11110100000101010111101 I"
b11110100000101010111101 s'
0W(
0X(
#315
b11111 "
b11110100000101010111110 I"
b11110100000101010111110 s'
#316
b11110100000101010111111 I"
b11110100000101010111111 s'
#317
b11110 "
b11110100000101011000000 I"
b11110100000101011000000 s'
#318
b11110100000101011000001 I"
b11110100000101011000001 s'
#319
b11110100000101011000010 I"
b11110100000101011000010 s'
#320
b11110100000101011000011 I"
b11110100000101011000011 s'
#321
b11110100000101011000100 I"
b11110100000101011000100 s'
#322
b11101 "
b11110100000101011000101 I"
b11110100000101011000101 s'
1W(
1X(
#323
b11110100000101011000110 I"
b11110100000101011000110 s'
#324
b11110 "
b11110100000101011000111 I"
b11110100000101011000111 s'
0W(
0X(
#325
b11111 "
b11110100000101011001000 I"
b11110100000101011001000 s'
#326
b11110100000101011001001 I"
b11110100000101011001001 s'
#327
b11110 "
b11110100000101011001010 I"
b11110100000101011001010 s'
#328
b11110100000101011001011 I"
b11110100000101011001011 s'
#329
b11110100000101011001100 I"
b11110100000101011001100 s'
#330
b11110100000101011001101 I"
b11110100000101011001101 s'
#331
b11110100000101011001110 I"
b11110100000101011001110 s'
#332
b11101 "
b11110100000101011001111 I"
b11110100000101011001111 s'
1W(
1X(
#333
b11110100000101011010000 I"
b11110100000101011010000 s'
#334
b11110 "
b11110100000101011010001 I"
b11110100000101011010001 s'
0W(
0X(
#335
b11111 "
b11110100000101011010010 I"
b11110100000101011010010 s'
1i(
#336
b11110100000101011010011 I"
b11110100000101011010011 s'
#337
b11110 "
b11110100000101011010100 I"
b11110100000101011010100 s'
#338
b11110100000101011010101 I"
b11110100000101011010101 s'
#339
b11110100000101011010110 I"
b11110100000101011010110 s'
0i(
#340
b11110100000101011010111 I"
b11110100000101011010111 s'
#341
b11110100000101011011000 I"
b11110100000101011011000 s'
#342
b11101 "
b11110100000101011011001 I"
b11110100000101011011001 s'
1W(
1X(
#343
b11110100000101011011010 I"
b11110100000101011011010 s'
#344
b11110 "
b11110100000101011011011 I"
b11110100000101011011011 s'
0W(
0X(
#345
b11111 "
b11110100000101011011100 I"
b11110100000101011011100 s'
#346
b11110100000101011011101 I"
b11110100000101011011101 s'
#347
b11110 "
b11110100000101011011110 I"
b11110100000101011011110 s'
#348
b11110100000101011011111 I"
b11110100000101011011111 s'
#349
b11110100000101011100000 I"
b11110100000101011100000 s'
#350
b11110100000101011100001 I"
b11110100000101011100001 s'
#351
b11110100000101011100010 I"
b11110100000101011100010 s'
#352
b11101 "
b11110100000101011100011 I"
b11110100000101011100011 s'
1W(
1X(
#353
b11110100000101011100100 I"
b11110100000101011100100 s'
#354
b11110 "
b11110100000101011100101 I"
b11110100000101011100101 s'
0W(
0X(
#355
b11111 "
b11110100000101011100110 I"
b11110100000101011100110 s'
#356
b11110100000101011100111 I"
b11110100000101011100111 s'
#357
b11110 "
b11110100000101011101000 I"
b11110100000101011101000 s'
#358
b11110100000101011101001 I"
b11110100000101011101001 s'
#359
b11110100000101011101010 I"
b11110100000101011101010 s'
#360
b11110100000101011101011 I"
b11110100000101011101011 s'
#361
b11110100000101011101100 I"
b11110100000101011101100 s'
#362
b11101 "
b11110100000101011101101 I"
b11110100000101011101101 s'
1W(
1X(
#363
b11110100000101011101110 I"
b11110100000101011101110 s'
#364
b11110 "
b11110100000101011101111 I"
b11110100000101011101111 s'
0W(
0X(
#365
b11111 "
b11110100000101011110000 I"
b11110100000101011110000 s'
#366
b11110100000101011110001 I"
b11110100000101011110001 s'
#367
b11110 "
b11110100000101011110010 I"
b11110100000101011110010 s'
1i(
#368
b11110100000101011110011 I"
b11110100000101011110011 s'
#369
b11110100000101011110100 I"
b11110100000101011110100 s'
#370
b11110100000101011110101 I"
b11110100000101011110101 s'
#371
b11110100000101011110110 I"
b11110100000101011110110 s'
0i(
#372
b11101 "
b11110100000101011110111 I"
b11110100000101011110111 s'
1W(
1X(
#373
b11110100000101011111000 I"
b11110100000101011111000 s'
