boards/zc706_fmcs2/.Xil/Vivado-8772-leo/hw_ila_data_2/zip_work/waveform.vcd
$date
        2021-Feb-24 15:33:09
$end
$version
        Vivado v2018.3 (64-bit)
$end
$timescale
        1ps
$end
$scope module dut $end
$var reg 5 " i_system_wrapper/system_i/openwifi_ip/tx_intf_0/inst/dac_intf_i/rd_data_count [4:0] $end
$var reg 1 ' i_system_wrapper/system_i/openwifi_ip/tx_intf_0/inst/dac_intf_i/dac_valid $end
$var reg 1 ( _TRIGGER $end
$var reg 1 ) _WINDOW $end
$var reg 1 * _GAP $end
$upscope $end
$enddefinitions $end
#0
$dumpvars
b11010 "
1'
0(
1)
0*
$end
#118
b11001 "
#122
b11010 "
#246
b11001 "
#250
b11010 "
#374
b11001 "
#378
b11010 "
#502
b11001 "
#506
b11010 "
#630
b11001 "
#634
b11010 "
#758
b11001 "
#762
b11010 "
#886
b11001 "
#890
b11010 "
#1014
b11001 "
#1018
b11010 "
#1142
b11001 "
#1146
b11010 "
#1270
b11001 "
#1274
b11010 "
#1398
b11001 "
#1402
b11010 "
#1526
b11001 "
#1530
b11010 "
#1654
b11001 "
#1658
b11010 "
#1782
b11001 "
#1786
b11010 "
#1910
b11001 "
#1914
b11010 "
#2038
b11001 "
#2042
b11010 "
#2048
1(
#2166
b11001 "
#2170
b11010 "
#2294
b11001 "
#2298
b11010 "
#2422
b11001 "
#2426
b11010 "
#2550
b11001 "
#2554
b11010 "
#2678
b11001 "
#2682
b11010 "
#2806
b11001 "
#2810
b11010 "
#2934
b11001 "
#2938
b11010 "
#3062
b11001 "
#3066
b11010 "
#3190
b11001 "
#3194
b11010 "
#3318
b11001 "
#3322
b11010 "
#3446
b11001 "
#3450
b11010 "
#3574
b11001 "
#3578
b11010 "
#3702
b11001 "
#3706
b11010 "
#3830
b11001 "
#3834
b11010 "
#3958
b11001 "
#3962
b11010 "
#4086
b11001 "
#4090
b11010 "
